${AnsiColor.RED}

          .... m=(-_-)=m ...

          LAS ESTADISTICAS DE GATURRO... ${AnsiColor.GREEN}
${AnsiColor.BRIGHT_BLUE}
                          \                     
                               .....            
                              C C  /            
                             /<   /             
              ___ __________/_#__=o             
             /(- /(\_\________   \              
             \ ) \ )_      \o     \             
             /|\ /|\       |'     |             
                           |     _|             
                           /o   __\             
                          / '     |             
                         / /      |             
                        /_/\______|             
                       (   _(    <              
                        \    \    \             
                         \    \    |            
                          \____\____\           
                          ____\_\__\_\          
                        /`   /`     o\          
                        |___ |_______|.... ${AnsiColor.GREEN}
        ==================================================
          ==================================================
            ==================================================
               =================================================

${AnsiColor.DEFAULT}
