{
  "type": "service_account",
  "project_id": "gaturro-metrics",
  "private_key_id": "3be5d1480bab05defd8feea8f6827fed2ff845fd",
  "private_key": "-----BEGIN PRIVATE KEY-----\nMIIEvQIBADANBgkqhkiG9w0BAQEFAASCBKcwggSjAgEAAoIBAQDJZHMp9WroF0Dh\nMDiPVXgTH4AFgxpsCpJvXVvpGblnBP12Vj1pAoWlIntPR/o8AVL8UVaBsAS4ckN8\nwceOwg5/QOV+d0aH9RZ2pxblrcJRbD10u8HO3PyxMbRmp6GdScHxL3MXh/VBVCn2\nfmRWBUmxcIfvDm1ka3zdTjGQReM99YKqfGgod1wfYzPbwYlf5bQyv9mIQpE7rVwc\nJCtpVKyfKbLgsujBjx+tfguIqHHxZSUb4dwMKmSYCA5SGQYnldoT1E4JEgfodOwN\nKvfdITJNv8jNrba4PFadJnkGsnjJVyEafTwVfNE3+/w+WXtY1DtN3mcXiXqrQ/Xh\n+TTrClQDAgMBAAECggEAIePd/2cVtPXIzLxVIEW1PZ6U6BiOVzUWPFhdEaZrDTuJ\nPaM4lVW/0LCzSH2nzfY5FU3IvW019iYAVluzrcHZN6/fjr8apuFnBNOMZl0tsI8C\n7oR0ElAc0+K15Xp7F2FkmiYue3y9GF/F6f2N++3K32m87k0iun3eFs3ESG+CVJgS\nE2+4rKWky0/BUB1RAO0zqY3peteAvW6zGEpjnloF/e2dDZwgxgBv5DSm7McHRLzm\nf0JSVxWdhzF3i3A15ufPZrXDmQbVtzun9XGnmi+E4rtCYtMAIB3ck5j32l+Zq6Ec\noeZQeT643XOz9H7uFt8Le0VCS880X6X2iHqoWM7q7QKBgQDn/7QFGnES1LGLK7bq\nENdVkDPpPbX447tE+h4Dzt5MJWc0Z4S7XXl4ygswNC5tGuHsK12XapzUJyCLuqwe\nNzDZzHaiLEB72ZmnLMU8XJ7GXtYhaKPJXVWX2ca2nHbinEWeqsc1PdVSqDbNp+cZ\nfK8vmUIiF438Z7m0Pg2t7D2QpwKBgQDeOij117YZi2Xd8LtiJk06L2wOK+izY0Bo\ns8DGPoOZnVGoeKpeCqFHMPdQ/A+cgLcHB1ywNkP0WjnLEDq5XzTc2COTH3Cy1UTh\nwalKpWcuE9cvf+7ltC1gZ6v0tW5XBVhZJwuXXNIBdA2GsrL+FdMqr96WGmX3EMcm\ngZKUqxbRRQKBgQC26BUwtNETDJdRZsyWK2Lp9X/H0rxmFn1te1gwnmcKV67PVRID\nekWrondBsNIteLVHskTefNJaPOLe5vSN+etMu3OIliTcwAjxEU4LMeaH9PsTaeE/\nf5Nc3fhZvm/IZ3ZICtJ1umM2AKL8bvS3VmLzvvuxzypFJi312bqFNaywHwKBgF7c\nBrYCUVoQFfiqFOKtpNOMgJyAA8HnQQwwhr5Y2wYMkFnQwDCKaxOfhEKOhf9xNi+K\n5fbWAyXgCcFzeQ295SvMG0tm5U2BGfkgGKqjdirGD1nYS1rEEYaQWmeHtsTwpCjS\nMPF4jrBOIKP5zcwF9vDGx8XdGN9gyxHVx4MskP3dAoGAR1SMkyJzfsLB+By0x1AB\nZKvfHUkOC+oriV4lmqqHmwZrcWfz2es6LfRyYHvFo4SrkIyw6lI32YBzPL2UqTLj\n777E/JuMltCa0rkjb+Yjx91qV1dcAcx8N6M0aDLR3XOAEvWwSibt+ekKjHGmfK1U\nft7eJS2BYczGf01ODf4H+RU=\n-----END PRIVATE KEY-----\n",
  "client_email": "gaturro@gaturro-metrics.iam.gserviceaccount.com",
  "client_id": "112508420880678924724",
  "auth_uri": "https://accounts.google.com/o/oauth2/auth",
  "token_uri": "https://accounts.google.com/o/oauth2/token",
  "auth_provider_x509_cert_url": "https://www.googleapis.com/oauth2/v1/certs",
  "client_x509_cert_url": "https://www.googleapis.com/robot/v1/metadata/x509/gaturro%40gaturro-metrics.iam.gserviceaccount.com"
}
